{
    "_id": "3uh1r86TzbQvosxv",
    "data": {
        "active": true,
        "alsoApplies": {
            "linked": [],
            "unlinked": []
        },
        "base": "Doomed",
        "description": {
            "chat": "",
            "unidentified": "",
            "value": "<p>A powerful force has gripped your soul, calling you closer to death. Doomed always includes a value. The <a class=\"entity-link\" draggable=\"true\" data-pack=\"pf2e.conditionitems\" data-id=\"yZRUzMqrMmfLu0V1\"> Dying</a> value at which you die is reduced by your doomed value. If your maximum dying value is reduced to 0, you instantly die. When you die, you’re no longer doomed.<br><br>Your doomed value decreases by 1 each time you get a full night’s rest.</p>"
        },
        "duration": {
            "perpetual": true,
            "text": "",
            "value": 0
        },
        "group": "death",
        "hud": {
            "img": {
                "useStatusName": true,
                "value": "system/pf2e/icons/conditions-2/doomed.png"
            },
            "selectable": true,
            "statusName": "doomed"
        },
        "modifiers": [],
        "overrides": [],
        "rarity": {
            "value": "common"
        },
        "references": {
            "children": [],
            "immunityFrom": [],
            "overriddenBy": [],
            "overrides": []
        },
        "removable": true,
        "rules": [],
        "source": {
            "value": ""
        },
        "sources": {
            "hud": false
        },
        "traits": {
            "value": []
        },
        "usage": {
            "value": "held-in-one-hand"
        },
        "value": {
            "immutable": false,
            "isValued": true,
            "modifiers": [],
            "value": 1
        }
    },
    "effects": [],
    "flags": {
        "pf2e": {
            "condition": true
        }
    },
    "img": "systems/pf2e/icons/conditions/doomed.png",
    "name": "Doomed",
    "permission": {
        "default": 0
    },
    "type": "condition"
}
