{
    "_id": "YnhcVcTbXrVfiH83",
    "data": {
        "activation": {
            "condition": "",
            "cost": 0,
            "type": ""
        },
        "autoDestroy": {
            "_deprecated": true,
            "value": true
        },
        "autoUse": {
            "_deprecated": true,
            "value": true
        },
        "brokenThreshold": {
            "value": 0
        },
        "bulkCapacity": {
            "value": ""
        },
        "charges": {
            "_deprecated": true,
            "max": "1",
            "value": "1"
        },
        "collapsed": {
            "value": false
        },
        "consumableType": {
            "value": "elixir"
        },
        "consume": {
            "_deprecated": true,
            "value": null
        },
        "containerId": {
            "value": ""
        },
        "description": {
            "chat": "",
            "unidentified": "",
            "value": "<p><span id=\"ctl00_MainContent_DetailedOutput\"><strong>Activate</strong>&nbsp;<span style=\"font-family: 'Pathfinder2eActions'; font-size: 1.8em; display: inline;\">1</span> Interact</span></p>\n<hr>\n<p>This translucent yellow-green liquid has a sharp, tangy odor and an oily sheen. It's mildly acidic and can cause a minor rash after prolonged contact with skin. To unlock its true potential, you must submerge a piece of an intelligent creature's brain matter in the acid and allow the material to completely dissolve. This takes <a class=\"inline-roll roll\" title=\"2d10\" data-mode=\"roll\" data-flavor=\"\" data-formula=\"2d10\"><i class=\"fas fa-dice-d20\"></i> 2d10</a> minutes, during which time the mnemonic acid bubbles and steams eagerly.<br><br>Once the brain matter fully dissolves, you can consume the acid as an Interact action to experience a powerful vision and relive one of the memories of the creature whose brain matter was dissolved. You have no control over which memory you experience, although such visions are almost always of memories that were meaningful to the owner of the dissolved brain matter. The memory might be of a single event or a series of related and interconnected events; the memory lasts no longer than 10 minutes, and you're <a class=\"entity-link\" draggable=\"true\" data-pack=\"pf2e.conditionitems\" data-id=\"XgEqL1kFApUbl5Z2\"><i class=\"fas fa-suitcase\"></i> Blind</a> to the world around you for the duration.<br><br>Each dose of mnemonic acid requires roughly 10% of the brain matter of the creature whose visions are to be experienced, meaning that up to 10 different memories from the same creature can be experienced, each with a different dose of mnemonic acid, before the brain matter is exhausted.&nbsp;</p>"
        },
        "duration": {
            "units": "",
            "value": null
        },
        "equipped": {
            "value": false
        },
        "equippedBulk": {
            "value": ""
        },
        "hardness": {
            "value": 0
        },
        "hp": {
            "value": 0
        },
        "identified": {
            "value": false
        },
        "invested": {
            "value": false
        },
        "level": {
            "value": "8"
        },
        "maxHp": {
            "value": 0
        },
        "negateBulk": {
            "value": "0"
        },
        "preciousMaterial": {
            "value": ""
        },
        "preciousMaterialGrade": {
            "value": ""
        },
        "price": {
            "value": "75 gp"
        },
        "quantity": {
            "value": "1"
        },
        "range": {
            "long": null,
            "units": "",
            "value": null
        },
        "rarity": {
            "value": "common"
        },
        "rules": [],
        "source": {
            "value": ""
        },
        "stackGroup": {
            "value": ""
        },
        "target": {
            "type": "",
            "units": "",
            "value": null
        },
        "traits": {
            "custom": "",
            "rarity": {
                "value": "uncommon"
            },
            "usage": {
                "value": "held-in-one-hand"
            },
            "value": [
                "alchemical",
                "consumable",
                "elixir"
            ]
        },
        "usage": {
            "value": "held-in-one-hand"
        },
        "uses": {
            "autoDestroy": true,
            "autoUse": true,
            "max": 0,
            "per": null,
            "value": 0
        },
        "weight": {
            "value": "L"
        }
    },
    "effects": [],
    "flags": {
        "core": {
            "sourceId": "Item.UCUVHySxpqh7HgL5"
        }
    },
    "img": "systems/pf2e/icons/equipment/alchemical-items/alchemical-elixirs/mnemonic-acid.jpg",
    "name": "Mnemonic Acid",
    "permission": {
        "default": 0
    },
    "type": "consumable"
}
