{
    "_id": "xvJ2jzqipBNrwZ2w",
    "data": {
        "activation": {
            "condition": "",
            "cost": 0,
            "type": ""
        },
        "autoDestroy": {
            "_deprecated": true,
            "value": true
        },
        "autoUse": {
            "_deprecated": true,
            "value": true
        },
        "brokenThreshold": {
            "value": 0
        },
        "bulkCapacity": {
            "value": ""
        },
        "charges": {
            "_deprecated": true,
            "max": "1",
            "value": "1"
        },
        "collapsed": {
            "value": false
        },
        "consumableType": {
            "value": "poison"
        },
        "consume": {
            "_deprecated": true,
            "value": null
        },
        "containerId": {
            "value": ""
        },
        "description": {
            "chat": "",
            "unidentified": "",
            "value": "<p><strong>Activate&nbsp;</strong><span style=\"font-family: 'Pathfinder2eActions'; font-size: 1.8em; display: inline;\">1</span>&nbsp;Interact;</p>\n<p>This blackish grit seems to absorb light and resembles particularly dark flakes of black pepper. Infused with the blindness spell, sight-theft grit causes the victim's sight to dim and then depart altogether. The @Compendium[pf2e.conditionitems.XgEqL1kFApUbl5Z2]{Blinded} condition from this poison lasts for an additional 24 hours once the poison has run its course.</p>\n<hr />\n<p><strong>Saving Throw</strong> DC 28 Fortitude;</p>\n<p><strong>Onset</strong> 10 minutes;</p>\n<p><strong>Maximum Duration</strong> 14 hours;</p>\n<p><strong>Stage 1</strong> @Compendium[pf2e.conditionitems.TkIyaNPgTZFBCCuh]{Dazzled} and a &ndash;2 status penalty to visual Perception checks (1 hour);</p>\n<p><strong>Stage 2</strong> dazzled and a &ndash;4 status penalty to visual Perception checks (1 hour);</p>\n<p><strong>Stage 3 </strong>blinded ([[/r 2d6 #hours]] hours)</p>\n<hr />\n<p>Craft Requirements Supply one casting of @Compendium[pf2e.spells-srd.VosLNn2M8S7JH67D]{Blindness}.</p>"
        },
        "duration": {
            "units": "",
            "value": null
        },
        "equipped": {
            "value": false
        },
        "equippedBulk": {
            "value": ""
        },
        "hardness": {
            "value": 0
        },
        "hp": {
            "value": 0
        },
        "identified": {
            "value": false
        },
        "invested": {
            "value": false
        },
        "level": {
            "value": "9"
        },
        "maxHp": {
            "value": 0
        },
        "negateBulk": {
            "value": "0"
        },
        "preciousMaterial": {
            "value": ""
        },
        "preciousMaterialGrade": {
            "value": ""
        },
        "price": {
            "value": "115 gp"
        },
        "quantity": {
            "value": "1"
        },
        "range": {
            "long": null,
            "units": "",
            "value": null
        },
        "rarity": {
            "value": "common"
        },
        "rules": [],
        "source": {
            "value": ""
        },
        "stackGroup": {
            "value": ""
        },
        "target": {
            "type": "",
            "units": "",
            "value": null
        },
        "traits": {
            "custom": "",
            "rarity": {
                "value": "uncommon"
            },
            "usage": {
                "value": "held-in-one-hand"
            },
            "value": [
                "consumable",
                "divine",
                "ingested",
                "poison"
            ]
        },
        "usage": {
            "value": "held-in-one-hand"
        },
        "uses": {
            "autoDestroy": true,
            "autoUse": true,
            "max": 0,
            "per": null,
            "value": 0
        },
        "weight": {
            "value": "L"
        }
    },
    "effects": [],
    "flags": {
        "core": {
            "sourceId": "Item.tcFWnwraHsKAJP4y"
        }
    },
    "img": "systems/pf2e/icons/equipment/alchemical-items/alchemical-poisons/sight-theft-grit.jpg",
    "name": "Sight-Theft Grit",
    "permission": {
        "default": 0
    },
    "type": "consumable"
}
