{
    "_id": "KxUJu1IHY9FxxAGV",
    "data": {
        "brokenThreshold": {
            "value": 0
        },
        "bulkCapacity": {
            "value": "4"
        },
        "collapsed": {
            "value": false
        },
        "containerId": {
            "value": ""
        },
        "description": {
            "chat": "",
            "unidentified": "",
            "value": "<p>This heavy backpack of alchemically treated cloth layered over a metal mesh protects its contents from water damage and other harmful effects. It holds up to 4 Bulk of items, and the first 2 Bulk contained within the sturdy satchel do not count against your Bulk limits. The bag has Hardness 5 and 20 Hit Points. As long as the bag remains closed and is not broken, water and other liquids can’t seep into it.</p>"
        },
        "equipped": {
            "value": true
        },
        "equippedBulk": {
            "value": ""
        },
        "hardness": {
            "value": 0
        },
        "hp": {
            "value": 0
        },
        "identified": {
            "value": false
        },
        "invested": {
            "value": false
        },
        "level": {
            "value": "2"
        },
        "maxHp": {
            "value": 0
        },
        "negateBulk": {
            "value": "2"
        },
        "preciousMaterial": {
            "value": ""
        },
        "preciousMaterialGrade": {
            "value": ""
        },
        "price": {
            "value": "30 gp"
        },
        "quantity": {
            "value": "1"
        },
        "rarity": {
            "value": "common"
        },
        "rules": [],
        "source": {
            "value": ""
        },
        "stackGroup": {
            "value": ""
        },
        "traits": {
            "rarity": {
                "value": "uncommon"
            },
            "usage": {
                "value": "wornbackpack"
            },
            "value": []
        },
        "usage": {
            "value": "held-in-one-hand"
        },
        "weight": {
            "value": "1"
        }
    },
    "effects": [],
    "flags": {
        "core": {
            "sourceId": "Item.PvXWN7emDLZvWWHk"
        }
    },
    "img": "systems/pf2e/icons/equipment/adventuring-gear/sturdy-satchel.jpg",
    "name": "Sturdy Satchel",
    "permission": {
        "default": 0
    },
    "type": "equipment"
}
