{
    "_id": "9xol7FdCfaU585WR",
    "description": "Table of 6th-Level Permanent Items",
    "displayRoll": true,
    "flags": {
        "core": {
            "sourceId": "RollTable.6H49pvZLyYEf8cgl"
        }
    },
    "formula": "1d135",
    "img": "icons/svg/d20-grey.svg",
    "name": "6th-Level Permanent Items",
    "permission": {
        "default": 0
    },
    "replacement": true,
    "results": [
        {
            "_id": "mYq4p5qykRLe1Ok4",
            "collection": "pf2e.equipment-srd",
            "drawn": false,
            "flags": {},
            "img": "systems/pf2e/icons/equipment/armor/specific-magic-armor/ghoul-hide.jpg",
            "range": [
                1,
                3
            ],
            "resultId": "hRwnNTMj7wa8S4Ji",
            "text": "Ghoul Hide",
            "type": 2,
            "weight": 3
        },
        {
            "_id": "QN2b9QvvhEhXYHss",
            "collection": "pf2e.equipment-srd",
            "drawn": false,
            "flags": {},
            "img": "systems/pf2e/icons/equipment/held-items/chime-of-opening.jpg",
            "range": [
                4,
                6
            ],
            "resultId": "3sGpEBXsZwjGnoES",
            "text": "Chime of Opening",
            "type": 2,
            "weight": 3
        },
        {
            "_id": "k455WZW8SCQLXbsv",
            "collection": "pf2e.equipment-srd",
            "drawn": false,
            "flags": {},
            "img": "systems/pf2e/icons/equipment/held-items/horn-of-fog.jpg",
            "range": [
                7,
                12
            ],
            "resultId": "hcGvN03ieNWlSQYa",
            "text": "Horn of Fog",
            "type": 2,
            "weight": 6
        },
        {
            "_id": "3EqXFbXhBaS3HemC",
            "collection": "pf2e.equipment-srd",
            "drawn": false,
            "flags": {},
            "img": "systems/pf2e/icons/equipment/held-items/primeval-mistletoe.jpg",
            "range": [
                13,
                18
            ],
            "resultId": "J5MqY1P3JWrezcQX",
            "text": "Primeval Mistletoe",
            "type": 2,
            "weight": 6
        },
        {
            "_id": "oLZsd9xeniDUB97N",
            "collection": "pf2e.equipment-srd",
            "drawn": false,
            "flags": {},
            "img": "systems/pf2e/icons/equipment/held-items/travelers-any-tool.jpg",
            "range": [
                19,
                24
            ],
            "resultId": "nNtakXnSrcXWndBV",
            "text": "Traveler's Any-Tool",
            "type": 2,
            "weight": 6
        },
        {
            "_id": "zz0eL7k3QNTKNXc3",
            "collection": "pf2e.equipment-srd",
            "drawn": false,
            "flags": {},
            "img": "systems/pf2e/icons/equipment/runes/weapon-property-runes/weapon-property-runes.jpg",
            "range": [
                25,
                30
            ],
            "resultId": "roeYtwlIe65BPMJ1",
            "text": "Shifting",
            "type": 2,
            "weight": 6
        },
        {
            "_id": "lLzSpPUauPOj4sfl",
            "collection": "pf2e.equipment-srd",
            "drawn": false,
            "flags": {},
            "img": "systems/pf2e/icons/equipment/shields/specific-shields/lions-shield.jpg",
            "range": [
                31,
                36
            ],
            "resultId": "eMDt5vCQztp7cC6B",
            "text": "Lion's Shield",
            "type": 2,
            "weight": 6
        },
        {
            "_id": "HpyqvpBDM6D2jUC6",
            "collection": "pf2e.equipment-srd",
            "drawn": false,
            "flags": {},
            "img": "systems/pf2e/icons/equipment/shields/specific-shields/spellguard-shield.jpg",
            "range": [
                37,
                42
            ],
            "resultId": "OqDAx4HJ39ojVtvg",
            "text": "Spellguard Shield",
            "type": 2,
            "weight": 6
        },
        {
            "_id": "bqsJMu7IB225fTYz",
            "collection": "pf2e.equipment-srd",
            "drawn": false,
            "flags": {},
            "img": "systems/pf2e/icons/equipment/staves/staff-of-abjuration.jpg",
            "range": [
                43,
                48
            ],
            "resultId": "EYRrABqjUYPrhrZr",
            "text": "Staff of Abjuration",
            "type": 2,
            "weight": 6
        },
        {
            "_id": "xkxbqKf3zQN0HjG2",
            "collection": "pf2e.equipment-srd",
            "drawn": false,
            "flags": {},
            "img": "systems/pf2e/icons/equipment/staves/staff-of-conjuration.jpg",
            "range": [
                49,
                54
            ],
            "resultId": "6IJZamE4JkERQumf",
            "text": "Staff of Conjuration",
            "type": 2,
            "weight": 6
        },
        {
            "_id": "kQTbzpAKyDIdb9PY",
            "collection": "pf2e.equipment-srd",
            "drawn": false,
            "flags": {},
            "img": "systems/pf2e/icons/equipment/staves/staff-of-divination.jpg",
            "range": [
                55,
                60
            ],
            "resultId": "ObmYN6I64Pjj7yEA",
            "text": "Staff of Divination",
            "type": 2,
            "weight": 6
        },
        {
            "_id": "11E6i8082Hr9VbAI",
            "collection": "pf2e.equipment-srd",
            "drawn": false,
            "flags": {},
            "img": "systems/pf2e/icons/equipment/staves/staff-of-enchantment.jpg",
            "range": [
                61,
                66
            ],
            "resultId": "eaYNVLnTX9VejnaA",
            "text": "Staff of Enchantment",
            "type": 2,
            "weight": 6
        },
        {
            "_id": "vQq7Hy7Dx1a8GCHZ",
            "collection": "pf2e.equipment-srd",
            "drawn": false,
            "flags": {},
            "img": "systems/pf2e/icons/equipment/staves/staff-of-evocation.jpg",
            "range": [
                67,
                72
            ],
            "resultId": "96VBd7CV8NQyv3lP",
            "text": "Staff of Evocation",
            "type": 2,
            "weight": 6
        },
        {
            "_id": "dwXrm0DZwZ0Vtpyl",
            "collection": "pf2e.equipment-srd",
            "drawn": false,
            "flags": {},
            "img": "systems/pf2e/icons/equipment/staves/staff-of-illusion.jpg",
            "range": [
                73,
                78
            ],
            "resultId": "Q2QHZdBaoOLkE1lX",
            "text": "Staff of Illusion",
            "type": 2,
            "weight": 6
        },
        {
            "_id": "ViMk7CeQzvGeYUrC",
            "collection": "pf2e.equipment-srd",
            "drawn": false,
            "flags": {},
            "img": "systems/pf2e/icons/equipment/staves/staff-of-necromancy.jpg",
            "range": [
                79,
                84
            ],
            "resultId": "c40Zn2TCRr3inIBA",
            "text": "Staff of Necromancy",
            "type": 2,
            "weight": 6
        },
        {
            "_id": "rj2RuyHe7q9qcZ2d",
            "collection": "pf2e.equipment-srd",
            "drawn": false,
            "flags": {},
            "img": "systems/pf2e/icons/equipment/staves/staff-of-transmutation.jpg",
            "range": [
                85,
                90
            ],
            "resultId": "p1pysEaGypaNxTEL",
            "text": "Staff of Transmutation",
            "type": 2,
            "weight": 6
        },
        {
            "_id": "o3gZ97kIi4lo11BY",
            "collection": "pf2e.equipment-srd",
            "drawn": false,
            "flags": {},
            "img": "systems/pf2e/icons/equipment/staves/verdant-staff.jpg",
            "range": [
                91,
                96
            ],
            "resultId": "sQFQlglhORQsxBKS",
            "text": "Verdant Staff",
            "type": 2,
            "weight": 6
        },
        {
            "_id": "OtH5vWwuqo4ICMuF",
            "collection": "pf2e.equipment-srd",
            "drawn": false,
            "flags": {},
            "img": "systems/pf2e/icons/equipment/wands/specialty-wands/wand-of-widening.jpg",
            "range": [
                97,
                102
            ],
            "resultId": "qmWlvoIlJRJ6pAeG",
            "text": "Wand of Widening (2nd-Level Spell)",
            "type": 2,
            "weight": 6
        },
        {
            "_id": "l9CD8GKGvhWX8hAA",
            "collection": "pf2e.equipment-srd",
            "drawn": false,
            "flags": {},
            "img": "systems/pf2e/icons/equipment/weapons/specific-magic-weapons/bloodletting-kukri.jpg",
            "range": [
                103,
                105
            ],
            "resultId": "tNue4PqJe85ZEE5v",
            "text": "Bloodletting Kukri",
            "type": 2,
            "weight": 3
        },
        {
            "_id": "t5t1wLQE2o2FC0iI",
            "collection": "pf2e.equipment-srd",
            "drawn": false,
            "flags": {},
            "img": "systems/pf2e/icons/equipment/weapons/specific-magic-weapons/twining-staff.jpg",
            "range": [
                106,
                111
            ],
            "resultId": "pjUACbrAXNIy9O7S",
            "text": "Twining Staff",
            "type": 2,
            "weight": 6
        },
        {
            "_id": "SaGLwztjSNglsrzf",
            "collection": "pf2e.equipment-srd",
            "drawn": false,
            "flags": {},
            "img": "systems/pf2e/icons/equipment/worn-items/other-worn-items/aeon-stone-gold-nodule.jpg",
            "range": [
                112,
                114
            ],
            "resultId": "odSvUKzphdwvDqgE",
            "text": "Aeon Stone (Gold Nodule)",
            "type": 2,
            "weight": 3
        },
        {
            "_id": "S0kG1NmHVtkY2ZNf",
            "collection": "pf2e.equipment-srd",
            "drawn": false,
            "flags": {},
            "img": "systems/pf2e/icons/equipment/worn-items/other-worn-items/choker-of-elocution.jpg",
            "range": [
                115,
                120
            ],
            "resultId": "TacKaUs8cIddqiCU",
            "text": "Choker of Elocution",
            "type": 2,
            "weight": 6
        },
        {
            "_id": "ND9f91U4mIQQpsxt",
            "collection": "pf2e.equipment-srd",
            "drawn": false,
            "flags": {},
            "img": "systems/pf2e/icons/equipment/worn-items/other-worn-items/clandestine-cloak.jpg",
            "range": [
                121,
                123
            ],
            "resultId": "hmmDa6LCS22dZT7P",
            "text": "Clandestine Cloak",
            "type": 2,
            "weight": 3
        },
        {
            "_id": "WGS4NVKgvBlbRbTe",
            "collection": "pf2e.equipment-srd",
            "drawn": false,
            "flags": {},
            "img": "systems/pf2e/icons/equipment/worn-items/other-worn-items/ring-of-energy-resistance.jpg",
            "range": [
                124,
                129
            ],
            "resultId": "EkZVXMdtqTTgahiJ",
            "text": "Ring of Energy Resistance",
            "type": 2,
            "weight": 6
        },
        {
            "_id": "7Z6tn2kUuYj3hLx2",
            "collection": "pf2e.equipment-srd",
            "drawn": false,
            "flags": {},
            "img": "systems/pf2e/icons/equipment/worn-items/other-worn-items/ring-of-the-ram.jpg",
            "range": [
                130,
                135
            ],
            "resultId": "s97FDCHi2UcfzKGn",
            "text": "Ring of the Ram",
            "type": 2,
            "weight": 6
        }
    ]
}
