{
    "_id": "XAJFTpuo8qrcW30P",
    "description": "Table of 9th-Level Consumables Items",
    "displayRoll": true,
    "flags": {
        "core": {
            "sourceId": "RollTable.JcyG8qLSai0LW0LQ"
        }
    },
    "formula": "1d72",
    "img": "icons/svg/d20-grey.svg",
    "name": "9th-Level Consumables Items",
    "permission": {
        "default": 0
    },
    "replacement": true,
    "results": [
        {
            "_id": "mYq4p5qykRLe1Ok4",
            "collection": "pf2e.equipment-srd",
            "drawn": false,
            "flags": {},
            "img": "systems/pf2e/icons/equipment/consumables/ammunition/explosive-ammunition.jpg",
            "range": [
                1,
                6
            ],
            "resultId": "rKknk8odXDBpON5l",
            "text": "Explosive Ammunition",
            "type": 2,
            "weight": 6
        },
        {
            "_id": "QN2b9QvvhEhXYHss",
            "collection": "pf2e.equipment-srd",
            "drawn": false,
            "flags": {},
            "img": "systems/pf2e/icons/equipment/consumables/ammunition/spellstrike-ammunition.jpg",
            "range": [
                7,
                12
            ],
            "resultId": "WSZl9S0Nui7pTMa8",
            "text": "Spellstrike Ammunition (Type IV)",
            "type": 2,
            "weight": 6
        },
        {
            "_id": "k455WZW8SCQLXbsv",
            "collection": "pf2e.equipment-srd",
            "drawn": false,
            "flags": {},
            "img": "systems/pf2e/icons/equipment/consumables/ammunition/storm-arrow.jpg",
            "range": [
                13,
                18
            ],
            "resultId": "RpvH9EDquO0jS3Jz",
            "text": "Storm Arrow",
            "type": 2,
            "weight": 6
        },
        {
            "_id": "aPbhuQl16Dn83HR8",
            "collection": "pf2e.equipment-srd",
            "drawn": false,
            "flags": {},
            "img": "systems/pf2e/icons/equipment/consumables/other-consumables/dust-of-disappearance.jpg",
            "range": [
                19,
                24
            ],
            "resultId": "9XSOAzq3xp9g6qkF",
            "text": "Dust of Disappearance",
            "type": 2,
            "weight": 6
        },
        {
            "_id": "3EqXFbXhBaS3HemC",
            "collection": "pf2e.equipment-srd",
            "drawn": false,
            "flags": {},
            "img": "systems/pf2e/icons/equipment/consumables/other-consumables/feather-token.jpg",
            "range": [
                25,
                30
            ],
            "resultId": "XAuWVlZYGgCguzwz",
            "text": "Feather Token (Whip)",
            "type": 2,
            "weight": 6
        },
        {
            "_id": "oLZsd9xeniDUB97N",
            "collection": "pf2e.equipment-srd",
            "drawn": false,
            "flags": {},
            "img": "systems/pf2e/icons/equipment/consumables/other-consumables/javelin-of-lightning.jpg",
            "range": [
                31,
                36
            ],
            "resultId": "wDhqRxuXPQfyD0eX",
            "text": "Javelin of Lightning",
            "type": 2,
            "weight": 6
        },
        {
            "_id": "zz0eL7k3QNTKNXc3",
            "collection": "pf2e.equipment-srd",
            "drawn": false,
            "flags": {},
            "img": "systems/pf2e/icons/equipment/alchemical-items/alchemical-elixirs/cheetahs-elixir.jpg",
            "range": [
                37,
                42
            ],
            "resultId": "t4X6GDybqLmt7UkN",
            "text": "Cheetah's Elixir (Greater)",
            "type": 2,
            "weight": 6
        },
        {
            "_id": "lLzSpPUauPOj4sfl",
            "collection": "pf2e.equipment-srd",
            "drawn": false,
            "flags": {},
            "img": "systems/pf2e/icons/equipment/alchemical-items/alchemical-elixirs/elixir-of-life.jpg",
            "range": [
                43,
                48
            ],
            "resultId": "c21stU5rhN4F2fZl",
            "text": "Elixir of Life (Moderate)",
            "type": 2,
            "weight": 6
        },
        {
            "_id": "bqsJMu7IB225fTYz",
            "collection": "pf2e.equipment-srd",
            "drawn": false,
            "flags": {},
            "img": "systems/pf2e/icons/equipment/consumables/oils/aligned-oil.jpg",
            "range": [
                49,
                54
            ],
            "resultId": "3uqUIZZuEyAMORUi",
            "text": "Aligned Oil",
            "type": 2,
            "weight": 6
        },
        {
            "_id": "xkxbqKf3zQN0HjG2",
            "collection": "pf2e.equipment-srd",
            "drawn": false,
            "flags": {},
            "img": "systems/pf2e/icons/equipment/alchemical-items/alchemical-poisons/lich-dust.jpg",
            "range": [
                55,
                60
            ],
            "resultId": "ca2lzxfJxvuLDrKu",
            "text": "Lich Dust",
            "type": 2,
            "weight": 6
        },
        {
            "_id": "kQTbzpAKyDIdb9PY",
            "collection": "pf2e.equipment-srd",
            "drawn": false,
            "flags": {},
            "img": "systems/pf2e/icons/equipment/alchemical-items/alchemical-poisons/spider-root.jpg",
            "range": [
                61,
                66
            ],
            "resultId": "oOXvk18K4izaJzG7",
            "text": "Spider Root",
            "type": 2,
            "weight": 6
        },
        {
            "_id": "11E6i8082Hr9VbAI",
            "collection": "pf2e.equipment-srd",
            "drawn": false,
            "flags": {},
            "img": "systems/pf2e/icons/equipment/consumables/other-consumables/spell-scroll.jpg",
            "range": [
                67,
                72
            ],
            "resultId": "tjLvRWklAylFhBHQ",
            "text": "Scroll of 5th-level Spell",
            "type": 2,
            "weight": 6
        }
    ]
}
