{
    "_id": "iKOcwFCbNX1a2OFT",
    "data": {
        "actionCategory": {
            "value": ""
        },
        "actionType": {
            "value": "passive"
        },
        "actions": {
            "value": ""
        },
        "description": {
            "chat": "",
            "unidentified": "",
            "value": "<p><span id=\"ctl00_MainContent_DetailedOutput\"><strong>Archetype</strong> Hellknight Armiger<br><strong>Prerequisites</strong> Hellknight Armiger Dedication<br></span></p>\n<hr>\n<p>You have been trained to resist the manipulations of fiends, and your Hellknight discipline makes you difficult to influence. You gain a +1 circumstance bonus to saves against mental effects that specifically improve your attitude and to your Will DC against someone Coercing you, Demoralizing you, Making an Impression on you, or Making a Request of you.<br>If a mental effect would compel you to act in a way that violates your Hellknight order's tenets (as determined by the GM), you can attempt to break free from the effect as a reaction triggered by receiving the violating order, and you gain a new Will save against the effect. You can attempt this new save only once for a given effect, even if you are compelled to violate your order's tenets multiple times.</p>"
        },
        "featType": {
            "value": "archetype"
        },
        "level": {
            "value": "4"
        },
        "prerequisites": {
            "value": "Hellknight Armiger Dedication"
        },
        "rarity": {
            "value": "common"
        },
        "source": {
            "value": ""
        },
        "traits": {
            "custom": "",
            "rarity": {
                "value": "common"
            },
            "value": [
                "archetype"
            ]
        },
        "usage": {
            "value": "held-in-one-hand"
        }
    },
    "flags": {},
    "img": "systems/pf2e/icons/features/feats/feats.jpg",
    "name": "Ardent Armiger",
    "permission": {
        "default": 0
    },
    "type": "feat"
}
