{
    "_id": "X7wFUWjYjYhzpejU",
    "data": {
        "actionCategory": {
            "value": ""
        },
        "actionType": {
            "value": "action"
        },
        "actions": {
            "value": "2"
        },
        "description": {
            "chat": "",
            "unidentified": "",
            "value": "<p><span id=\"ctl00_MainContent_DetailedOutput\"><strong>Prerequisites</strong> trained in @Compendium[pf2e.equipment-srd.kJJvKm80KwWXPukV]{Clan Dagger}<br></span></p>\n<hr>\n<p>By moving your clan dagger with rapid precision, you can protect yourself more effectively. Make two clan dagger Strikes against different targets. Your multiple attack penalty applies normally to these Strikes. You then use an Interact action to gain the +1 circumstance bonus to your AC from your clan dagger's parrying trait.</p>"
        },
        "featType": {
            "value": "ancestry"
        },
        "level": {
            "value": "1"
        },
        "prerequisites": {
            "value": "trained in clan daggers﻿"
        },
        "rarity": {
            "value": "common"
        },
        "source": {
            "value": ""
        },
        "traits": {
            "custom": "",
            "rarity": {
                "value": "common"
            },
            "value": [
                "dwarf"
            ]
        },
        "usage": {
            "value": "held-in-one-hand"
        }
    },
    "flags": {},
    "img": "systems/pf2e/icons/features/feats/feats.jpg",
    "name": "Clan's Edge",
    "permission": {
        "default": 0
    },
    "type": "feat"
}
