{
    "_id": "ZcKW5n7F0oAqRw5o",
    "data": {
        "actionCategory": {
            "value": ""
        },
        "actionType": {
            "value": "passive"
        },
        "actions": {
            "value": ""
        },
        "description": {
            "chat": "",
            "unidentified": "",
            "value": "<p>Your life has been spent challenging death itself, and proximity to that implacable foe only makes your heart beat harder.</p>\n<p>When you are taking persistent damage or your @Compendium[pf2e.conditionspf2e.Yl48xTdMh3aeQYL2]{Wounded} value is 1 or greater, you gain a +2 circumstance bonus to Fortitude saving throws.</p>"
        },
        "featType": {
            "value": "ancestry"
        },
        "level": {
            "value": "9"
        },
        "prerequisites": {
            "value": ""
        },
        "rarity": {
            "value": "common"
        },
        "rules": [],
        "source": {
            "value": ""
        },
        "traits": {
            "rarity": {
                "value": "common"
            },
            "value": [
                "orc"
            ]
        },
        "usage": {
            "value": ""
        }
    },
    "flags": {},
    "img": "systems/pf2e/icons/features/feats/feats.jpg",
    "name": "Death's Drums",
    "permission": {
        "default": 0
    },
    "type": "feat"
}
