{
    "_id": "dSSwRyuhKTq1VubX",
    "data": {
        "actionCategory": {
            "value": ""
        },
        "actionType": {
            "value": "free"
        },
        "actions": {
            "value": ""
        },
        "description": {
            "chat": "",
            "unidentified": "",
            "value": "<p><strong>Prerequisites</strong> <a class=\"entity-link\" data-pack=\"pf2e.feats-srd\" data-id=\"s6wXcQYmHbew14gC\" draggable=\"true\"><i class=\"fas fa-suitcase\"></i> Bastion Dedication</a>, trained in Athletics</p>\n<p><strong>Trigger</strong> You Shield Block a melee <a class=\"entity-link\" data-pack=\"pf2e.actionspf2e\" data-id=\"VjxZFuUXrCU94MWR\" draggable=\"true\"><i class=\"fas fa-suitcase\"></i> Strike</a> made with a held weapon.</p>\n<hr>\n<p>You attempt to <a class=\"entity-link\" data-pack=\"pf2e.actionspf2e\" data-id=\"Dt6B1slsBy8ipJu9\" draggable=\"true\"><i class=\"fas fa-suitcase\"></i> Disarm</a> the creature whose attack you blocked of the weapon they attacked you with. You can do so even if you don't have a hand free.</p>"
        },
        "featType": {
            "value": "archetype"
        },
        "level": {
            "value": "4"
        },
        "prerequisites": {
            "value": "Bastion Dedication, trained in Athletics"
        },
        "rarity": {
            "value": "common"
        },
        "source": {
            "value": ""
        },
        "traits": {
            "rarity": {
                "value": "common"
            },
            "value": [
                "archetype"
            ]
        },
        "usage": {
            "value": ""
        }
    },
    "flags": {},
    "img": "systems/pf2e/icons/features/feats/feats.jpg",
    "name": "Disarming Block",
    "permission": {
        "default": 0
    },
    "type": "feat"
}
