{
    "_id": "KRgzuwwjT30KKvV4",
    "data": {
        "actionCategory": {
            "value": ""
        },
        "actionType": {
            "value": "passive"
        },
        "actions": {
            "value": ""
        },
        "description": {
            "chat": "",
            "unidentified": "",
            "value": "<p><strong>Prerequisites </strong>@Compendium[pf2e.feats-srd.AmFv3ClkAVRowHLI]{Tengu Weapon Familiarity}</p>\n<hr>\n<p>You were always taught that you needed to be able to use whatever weapon came your way. You can change any of the swords designated in your Tengu Weapon Familiarity to different swords that meet the same specifications.</p>\n<p>You have to practice with a sword during your daily preparations to designate it, and the designation only lasts until your next daily preparations. This changes only your proficiency; it doesn't change your access.</p>"
        },
        "featType": {
            "value": "ancestry"
        },
        "level": {
            "value": "9"
        },
        "prerequisites": {
            "value": "Tengu Weapon Familiarity"
        },
        "rarity": {
            "value": "common"
        },
        "source": {
            "value": ""
        },
        "traits": {
            "rarity": {
                "value": "common"
            },
            "value": [
                "tengu"
            ]
        },
        "usage": {
            "value": ""
        }
    },
    "flags": {},
    "img": "systems/pf2e/icons/features/feats/feats.jpg",
    "name": "Eclectic Sword Training",
    "permission": {
        "default": 0
    },
    "type": "feat"
}
