{
    "_id": "I9cJYC7anz7HmpcJ",
    "data": {
        "actionCategory": {
            "value": ""
        },
        "actionType": {
            "value": "passive"
        },
        "actions": {
            "value": ""
        },
        "description": {
            "chat": "",
            "unidentified": "",
            "value": "<p><strong>Prerequisites </strong>@Compendium[pf2e.feats-srd.lbiFj4At5BxotaNY]{Dracomancer}</p>\n<hr>\n<p>Your magic rivals that of lesser dragons. Choose one 3rd-level spell and one 4th-level spell from those listed for a dragon spellcaster of your draconic exemplar's type, as on pages 104–126 of the <em>Bestiary</em> (such as @Compendium[pf2e.spells-srd.DCQHaLrYXMI37dvW]{Paralyze}&nbsp;and @Compendium[pf2e.spells-srd.GKpEcy9WId6NJvtx]{Stinking Cloud}&nbsp;for a black dragon exemplar).</p>\n<p>You can cast each of these spells once per day as arcane innate spells.</p>"
        },
        "featType": {
            "value": "ancestry"
        },
        "level": {
            "value": "13"
        },
        "prerequisites": {
            "value": "Dracomancer"
        },
        "rarity": {
            "value": "common"
        },
        "source": {
            "value": ""
        },
        "traits": {
            "rarity": {
                "value": "common"
            },
            "value": [
                "kobold"
            ]
        },
        "usage": {
            "value": ""
        }
    },
    "flags": {},
    "img": "systems/pf2e/icons/features/feats/feats.jpg",
    "name": "Elite Dracomancer",
    "permission": {
        "default": 0
    },
    "type": "feat"
}
