{
    "_id": "gC5EnlP38t1vTlWt",
    "data": {
        "actionCategory": {
            "value": ""
        },
        "actionType": {
            "value": "passive"
        },
        "actions": {
            "value": ""
        },
        "description": {
            "chat": "",
            "unidentified": "",
            "value": "<p><span id=\"ctl00_MainContent_DetailedOutput\">Your polite manners and natural ability to comfort others make it easy for you to break down cultural barriers and earn strangers' trust. While you are in a settlement, when you roll a critical failure on a Diplomacy check to @Compendium[pf2e.actionspf2e.plBGdZhqq5JBl1D8]{Gather Information} or @Compendium[pf2e.actionspf2e.OX4fy22hQgUHDr0q]{Make an Impression}, you get a failure instead.&nbsp;</span></p>"
        },
        "featType": {
            "value": "ancestry"
        },
        "level": {
            "value": "1"
        },
        "prerequisites": {
            "value": ""
        },
        "rarity": {
            "value": "common"
        },
        "source": {
            "value": ""
        },
        "traits": {
            "custom": "",
            "rarity": {
                "value": "common"
            },
            "value": [
                "shoony"
            ]
        },
        "usage": {
            "value": "held-in-one-hand"
        }
    },
    "flags": {},
    "img": "systems/pf2e/icons/features/feats/feats.jpg",
    "name": "Esteemed Visitor",
    "permission": {
        "default": 0
    },
    "type": "feat"
}
