{
    "_id": "Fj3ufCawOM6fZB24",
    "data": {
        "actionCategory": {
            "value": ""
        },
        "actionType": {
            "value": "passive"
        },
        "actions": {
            "value": ""
        },
        "description": {
            "chat": "",
            "unidentified": "",
            "value": "<p><span id=\"ctl00_MainContent_DetailedOutput\">You know how to get the most out of your allies. While exploring, when you are leading and allies are @Compendium[pf2e.actionspf2e.tfa4Sh7wcxCEqL29]{Following the Expert}, you grant a +3 circumstance bonus instead of +2 if you're an expert in the applicable skill, and a +4 circumstance bonus if you're a master.</span></p>"
        },
        "featType": {
            "value": "ancestry"
        },
        "level": {
            "value": "5"
        },
        "prerequisites": {
            "value": ""
        },
        "rarity": {
            "value": "common"
        },
        "source": {
            "value": ""
        },
        "traits": {
            "custom": "",
            "rarity": {
                "value": "common"
            },
            "value": [
                "hobgoblin"
            ]
        },
        "usage": {
            "value": "held-in-one-hand"
        }
    },
    "flags": {},
    "img": "systems/pf2e/icons/features/feats/feats.jpg",
    "name": "Expert Drill Sergeant",
    "permission": {
        "default": 0
    },
    "type": "feat"
}
