{
    "_id": "hE6fchGuHuPIeKlO",
    "data": {
        "actionCategory": {
            "value": ""
        },
        "actionType": {
            "value": "action"
        },
        "actions": {
            "value": "2"
        },
        "description": {
            "chat": "",
            "unidentified": "",
            "value": "<p><strong>Prerequisites </strong><a class=\"entity-link\" data-pack=\"pf2e.feats-srd\" data-id=\"qMa2fIP2nqrFzHrq\" draggable=\"true\"><i class=\"fas fa-suitcase\"></i> Scout Dedication</a></p>\n<hr>\n<p>You're able to quickly disappear and then move about stealthily. You <a class=\"entity-link\" data-pack=\"pf2e.actionspf2e\" data-id=\"XMcnh4cSI32tljXa\" draggable=\"true\"><i class=\"fas fa-suitcase\"></i> Hide</a>, then <a class=\"entity-link\" data-pack=\"pf2e.actionspf2e\" data-id=\"VMozDqMMuK5kpoX4\" draggable=\"true\"><i class=\"fas fa-suitcase\"></i> Sneak</a> twice.</p>"
        },
        "featType": {
            "value": "archetype"
        },
        "level": {
            "value": "6"
        },
        "prerequisites": {
            "value": "Scout Dedication"
        },
        "rarity": {
            "value": "common"
        },
        "source": {
            "value": ""
        },
        "traits": {
            "rarity": {
                "value": "common"
            },
            "value": [
                "archetype",
                "flourish"
            ]
        },
        "usage": {
            "value": ""
        }
    },
    "flags": {},
    "img": "systems/pf2e/icons/features/feats/feats.jpg",
    "name": "Fleeting Shadow",
    "permission": {
        "default": 0
    },
    "type": "feat"
}
