{
    "_id": "rwTbN2A2ZO7CdKoC",
    "data": {
        "actionCategory": {
            "value": ""
        },
        "actionType": {
            "value": "passive"
        },
        "actions": {
            "value": ""
        },
        "description": {
            "chat": "",
            "unidentified": "",
            "value": "<p><strong>Prerequisites </strong>@Compendium[pf2e.feats-srd.bX2WI5k0afqPpCfm]{Ubiquitous Snares}</p>\n<hr>\n<p>You can create endless shorter-lived snares, protecting your lair or using them against foes.</p>\n<p>Once per minute, you can @Compendium[pf2e.actionspf2e.rmwa3OyhTZ2i2AHl]{Craft} one of the snares you've prepared for quick deployment without expending the prepared snare. Once deployed, such a snare lasts for 10 minutes before losing its effectiveness.</p>"
        },
        "featType": {
            "value": "class"
        },
        "level": {
            "value": "20"
        },
        "prerequisites": {
            "value": "Ubiquitous Snares"
        },
        "rarity": {
            "value": "common"
        },
        "source": {
            "value": ""
        },
        "traits": {
            "rarity": {
                "value": "common"
            },
            "value": [
                "ranger"
            ]
        },
        "usage": {
            "value": ""
        }
    },
    "flags": {},
    "img": "systems/pf2e/icons/features/feats/feats.jpg",
    "name": "Impossible Snares",
    "permission": {
        "default": 0
    },
    "type": "feat"
}
