{
    "_id": "3HChkcD1IRqv4DbA",
    "data": {
        "actionCategory": {
            "value": ""
        },
        "actionType": {
            "value": "passive"
        },
        "actions": {
            "value": ""
        },
        "description": {
            "chat": "",
            "unidentified": "",
            "value": "<p><strong>Prerequisites</strong> trained in Crafting</p>\n<hr>\n<p>You can jury-rig solutions when you don't have the proper tools on hand. You can attempt to @Compendium[pf2e.actionspf2e.bT3skovyLUtP22ME]{Repair} damaged items without a repair kit.</p>\n<p>If you have the raw materials available, you can @Compendium[pf2e.actionspf2e.rmwa3OyhTZ2i2AHl]{Craft} a basic @Compendium[pf2e.equipment-srd.7fSnvJ2xoSfa6JXD]{Caltrop} set, @Compendium[pf2e.equipment-srd.Ti4gWILk69LPxKuU]{Candle}, @Compendium[pf2e.equipment-srd.wob6DB1FFdWs0mbp]{Compass}, @Compendium[pf2e.equipment-srd.44F1mfJei4GY8f2X]{Crowbar}, @Compendium[pf2e.equipment-srd.3tOyV4VZEZhwnAMO]{Fishing Tackle}, @Compendium[pf2e.equipment-srd.UlIxxLm71UdRgCFE]{Flint and Steel}, @Compendium[pf2e.equipment-srd.ML0GR2cIEdMn2hoD]{Hammer}, @Compendium[pf2e.equipment-srd.5j5KyZsGOfbrJNUZ]{Ladder}, @Compendium[pf2e.equipment-srd.oX39xqMLVB8kNrY0]{Piton}, @Compendium[pf2e.equipment-srd.fyYnQf1NAx9fWFaS]{Rope}, @Compendium[pf2e.equipment-srd.ccsgob2TZ7WqTrp7]{Ten-Foot Pole}, @Compendium[pf2e.equipment-srd.Sw7MBLASN3xK4Y44]{Replacement Thieves Picks}, @Compendium[pf2e.equipment-srd.wrpI5z7iWB8XvflQ]{Long Tool} or @Compendium[pf2e.equipment-srd.Zr4PwTEuBLE30kkn]{Short Tool}, or @Compendium[pf2e.equipment-srd.8Jdw4yAzWYylGePS]{Torch} without consulting a basic crafter's book.</p>"
        },
        "featType": {
            "value": "skill"
        },
        "level": {
            "value": "1"
        },
        "prerequisites": {
            "value": "trained in Crafting"
        },
        "rarity": {
            "value": "common"
        },
        "source": {
            "value": ""
        },
        "traits": {
            "rarity": {
                "value": "common"
            },
            "value": [
                "general",
                "skill"
            ]
        },
        "usage": {
            "value": ""
        }
    },
    "flags": {},
    "img": "systems/pf2e/icons/features/feats/feats.jpg",
    "name": "Improvise Tool",
    "permission": {
        "default": 0
    },
    "type": "feat"
}
