{
    "_id": "u6SDVWbzHnBBPNMo",
    "data": {
        "actionCategory": {
            "value": ""
        },
        "actionType": {
            "value": "passive"
        },
        "actions": {
            "value": ""
        },
        "description": {
            "chat": "",
            "unidentified": "",
            "value": "<p><strong>Prerequisites </strong>You speak at least three languages</p>\n<hr>\n<p>You have studied languages and their development. You become trained in Society; if you were already trained in Society, you instead become an expert in Society. You gain the <a class=\"entity-link\" data-pack=\"pf2e.feats-srd\" data-id=\"P9HCz0uR6xPHuw72\" draggable=\"true\"><i class=\"fas fa-suitcase\"></i> Multilingual</a> skill feat twice.</p>\n<p><strong>Special</strong> You can't select another dedication feat until you have gained two other feats from the linguist archetype.</p>"
        },
        "featType": {
            "value": "archetype"
        },
        "level": {
            "value": "2"
        },
        "prerequisites": {
            "value": "You speak at least three languages."
        },
        "rarity": {
            "value": "common"
        },
        "source": {
            "value": ""
        },
        "traits": {
            "rarity": {
                "value": "common"
            },
            "value": [
                "archetype",
                "dedication"
            ]
        },
        "usage": {
            "value": ""
        }
    },
    "flags": {},
    "img": "systems/pf2e/icons/features/feats/feats.jpg",
    "name": "Linguist Dedication",
    "permission": {
        "default": 0
    },
    "type": "feat"
}
