{
    "_id": "gfMP2aMs3YGONVeB",
    "data": {
        "actionCategory": {
            "value": ""
        },
        "actionType": {
            "value": "passive"
        },
        "actions": {
            "value": ""
        },
        "description": {
            "chat": "",
            "unidentified": "",
            "value": "<p><span id=\"ctl00_MainContent_DetailedOutput\"><strong>Frequency</strong> once per day<br><strong>Prerequisites</strong> Diehard, you have died at least once<br></span></p>\n<hr>\n<p>Your past has left you numb to death's call. The first time each day that you regain Hit Points while you are @Compendium[pf2e.conditionspf2e.yZRUzMqrMmfLu0V1]{Dying}, you regain additional Hit Points equal to your level, and you neither gain the @Compendium[pf2e.conditionspf2e.Yl48xTdMh3aeQYL2]{Wounded} condition nor increase the value of this condition.</p>"
        },
        "featType": {
            "value": "general"
        },
        "level": {
            "value": "7"
        },
        "prerequisites": {
            "value": "Diehard, you have died at least once"
        },
        "rarity": {
            "value": "common"
        },
        "source": {
            "value": ""
        },
        "traits": {
            "custom": "",
            "rarity": {
                "value": "common"
            },
            "value": [
                "general"
            ]
        },
        "usage": {
            "value": "held-in-one-hand"
        }
    },
    "flags": {},
    "img": "systems/pf2e/icons/features/feats/feats.jpg",
    "name": "Numb to Death",
    "permission": {
        "default": 0
    },
    "type": "feat"
}
