{
    "_id": "Wz0LLKjEi8GfKloV",
    "data": {
        "actionCategory": {
            "value": ""
        },
        "actionType": {
            "value": "passive"
        },
        "actions": {
            "value": ""
        },
        "description": {
            "chat": "",
            "unidentified": "",
            "value": "<p><strong>Prerequisites </strong>@Compendium[pf2e.feats-srd.nU5Pow4HMzoDHa8Z]{Basic Witch Spellcasting}</p>\n<hr>\n<p>You can cast more spells each day. Increase the spell slots you gain from witch archetype feats by 1 for each spell level other than your two highest spell levels.</p>"
        },
        "featType": {
            "value": "archetype"
        },
        "level": {
            "value": "8"
        },
        "prerequisites": {
            "value": "Basic Witch Spellcasting"
        },
        "rarity": {
            "value": "common"
        },
        "rules": [],
        "source": {
            "value": ""
        },
        "traits": {
            "rarity": {
                "value": "common"
            },
            "value": [
                "archetype"
            ]
        },
        "usage": {
            "value": ""
        }
    },
    "flags": {},
    "img": "systems/pf2e/icons/features/feats/feats.jpg",
    "name": "Patron's Breadth",
    "permission": {
        "default": 0
    },
    "type": "feat"
}
