{
    "_id": "8Sdw31YToKhBJ4v4",
    "data": {
        "actionCategory": {
            "value": ""
        },
        "actionType": {
            "value": "passive"
        },
        "actions": {
            "value": null
        },
        "description": {
            "chat": "",
            "unidentified": "",
            "value": "<p><strong>Prerequisites </strong>Swordmaster Dedication, expert in Athletics and Acrobatics</p>\n<hr>\n<p>You spend a lot of time focusing on your physical fitness. You increase your proficiency rank in Acrobatics and Athletics from expert to master.</p>"
        },
        "featType": {
            "value": "archetype"
        },
        "level": {
            "value": "8"
        },
        "prerequisites": {
            "value": "Swordmaster Dedication, expert in Athletics and Acrobatics"
        },
        "rarity": {
            "value": "common"
        },
        "rules": [],
        "source": {
            "value": ""
        },
        "traits": {
            "custom": "",
            "rarity": {
                "value": "common"
            },
            "value": [
                "archetype"
            ]
        },
        "usage": {
            "value": "held-in-one-hand"
        }
    },
    "effects": [],
    "flags": {
        "core": {
            "sourceId": "Item.cjcA6VLy2sSfyQqT"
        }
    },
    "img": "systems/pf2e/icons/features/feats/feats.jpg",
    "name": "Physical Training",
    "permission": {
        "default": 0
    },
    "type": "feat"
}
