{
    "_id": "AiV2xFhYB90KHt2x",
    "data": {
        "actionCategory": {
            "value": ""
        },
        "actionType": {
            "value": "free"
        },
        "actions": {
            "value": ""
        },
        "description": {
            "chat": "",
            "unidentified": "",
            "value": "<p><strong>Trigger</strong> You use @Compendium[pf2e.actionspf2e.nbfNETdpee8CVM17]{Flurry of Blows} to make two ranged piercing weapon @Compendium[pf2e.actionspf2e.VjxZFuUXrCU94MWR]{Strikes} against the same target.</p>\n<hr>\n<p>You target your opponent's clothing, equipment, or loose flesh with piercing projectiles to pin them to the ground or a nearby surface. If both your attacks hit, the target must succeed at a Reflex save against your class DC or become @Compendium[pf2e.conditionspf2e.eIcWbB5o3pP6OIMe]{Immobilized} until it or an adjacent creature succeeds at a DC 10 Athletics check to remove the pinning projectiles.</p>\n<p>The creature doesn't become stuck if it is incorporeal, is liquid (like a water elemental or some oozes), or could otherwise escape without effort.</p>"
        },
        "featType": {
            "value": "class"
        },
        "level": {
            "value": "8"
        },
        "prerequisites": {
            "value": ""
        },
        "rarity": {
            "value": "common"
        },
        "rules": [],
        "source": {
            "value": ""
        },
        "traits": {
            "rarity": {
                "value": "common"
            },
            "value": [
                "monk"
            ]
        },
        "usage": {
            "value": ""
        }
    },
    "flags": {},
    "img": "systems/pf2e/icons/features/feats/feats.jpg",
    "name": "Pinning Fire",
    "permission": {
        "default": 0
    },
    "type": "feat"
}
