{
    "_id": "zaGD9Og2p8Opa0oJ",
    "data": {
        "actionCategory": {
            "value": ""
        },
        "actionType": {
            "value": "passive"
        },
        "actions": {
            "value": ""
        },
        "description": {
            "chat": "",
            "unidentified": "",
            "value": "<p>You're always on the lookout for supplies and valuables. Each time you use the <a class=\"entity-link\" data-pack=\"pf2e.actionspf2e\" data-id=\"BlAOM2X92SI6HMtJ\" draggable=\"true\"><i class=\"fas fa-suitcase\"></i> Seek</a> action to search for objects (including secret doors and hazards), you can search for objects in your choice of a 10-foot emanation around you or an adjacent 15-foot-by-15-foot area, rather than a single adjacent 10-foot-by-10-foot area.</p>"
        },
        "featType": {
            "value": "ancestry"
        },
        "level": {
            "value": "1"
        },
        "prerequisites": {
            "value": ""
        },
        "rarity": {
            "value": "common"
        },
        "rules": [],
        "source": {
            "value": ""
        },
        "traits": {
            "rarity": {
                "value": "common"
            },
            "value": [
                "tengu"
            ]
        },
        "usage": {
            "value": ""
        }
    },
    "flags": {},
    "img": "systems/pf2e/icons/features/feats/feats.jpg",
    "name": "Scavenger's Search",
    "permission": {
        "default": 0
    },
    "type": "feat"
}
