{
    "_id": "B7VMXObJSNVI0ZGJ",
    "data": {
        "actionCategory": {
            "value": ""
        },
        "actionType": {
            "value": "reaction"
        },
        "actions": {
            "value": ""
        },
        "description": {
            "chat": "",
            "unidentified": "",
            "value": "<p><strong>Prerequisites </strong>@Compendium[pf2e.feats-srd.FSxugo3zTgRhW7Og]{Improvised Pummel}</p>\n<p><strong>Trigger </strong>An improvised weapon that you are wielding becomes broken as a result of a critical success on an Improvised Pummel.</p>\n<hr>\n<p>The improvised weapon shatters, destroying it completely but dealing an additional [[/r 3d6 #piercing]] piercing damage to the creature you hit with the Improvised Pummel. This extra damage you apply on the critical hit doesn't double from the critical hit, as normal.</p>"
        },
        "featType": {
            "value": "archetype"
        },
        "level": {
            "value": "10"
        },
        "prerequisites": {
            "value": "Improvised Pummel<b>Trigger</b> An improvised weapon that you are wielding becomes broken as a result of a critical success on an Improvised Pummel.The improvised weapon shatters, destroying it completely but dealing an additional 3d6 piercing damage to the creature you hit with the Improvised Pummel. This extra damage you apply on the critical hit doesn't double from the critical hit, as normal."
        },
        "rarity": {
            "value": "common"
        },
        "rules": [],
        "source": {
            "value": ""
        },
        "traits": {
            "rarity": {
                "value": "common"
            },
            "value": [
                "archetype"
            ]
        },
        "usage": {
            "value": ""
        }
    },
    "flags": {},
    "img": "systems/pf2e/icons/features/feats/feats.jpg",
    "name": "Shattering Strike (Weapon Improviser)",
    "permission": {
        "default": 0
    },
    "type": "feat"
}
