{
    "_id": "RiuZT3H4QZIIEQXJ",
    "data": {
        "actionCategory": {
            "value": ""
        },
        "actionType": {
            "label": "Action Type",
            "type": "String",
            "value": "passive"
        },
        "actions": {
            "label": "Number of Actions",
            "type": "String",
            "value": ""
        },
        "description": {
            "chat": "",
            "label": "Description",
            "type": "String",
            "unidentified": "",
            "value": "<p><strong>Prerequisites</strong> master in Deception</p>\n<hr>\n<p>You elude and evade attempts to uncover your true nature or intentions. When a spell or magical effect tries to read your mind, detect whether you are lying, or reveal your alignment, you can attempt a Deception check against the spell or effect's DC. If you succeed, the effect reveals nothing.</p>"
        },
        "featType": {
            "label": "Feat Type",
            "type": "String",
            "value": "skill"
        },
        "level": {
            "label": "Feat Level",
            "type": "String",
            "value": "7"
        },
        "prerequisites": {
            "label": "Prerequisites",
            "type": "String",
            "value": "master in Deception"
        },
        "rarity": {
            "value": "common"
        },
        "rules": [],
        "source": {
            "label": "Source",
            "type": "String",
            "value": ""
        },
        "traits": {
            "custom": "",
            "label": "Traits",
            "rarity": {
                "value": "common"
            },
            "type": "String",
            "value": [
                "general",
                "skill"
            ]
        },
        "usage": {
            "value": "held-in-one-hand"
        }
    },
    "flags": {},
    "img": "systems/pf2e/icons/features/feats/feats.jpg",
    "name": "Slippery Secrets",
    "permission": {
        "default": 0
    },
    "type": "feat"
}
