{
    "_id": "mWCiu9Hl1WxajSLa",
    "data": {
        "actionCategory": {
            "value": ""
        },
        "actionType": {
            "label": "Action Type",
            "type": "String",
            "value": "action"
        },
        "actions": {
            "label": "Number of Actions",
            "type": "String",
            "value": "1"
        },
        "description": {
            "chat": "",
            "label": "Description",
            "type": "String",
            "unidentified": "",
            "value": "<p><strong>Requirements</strong> You have one hand free, and your target is within reach of that hand</p>\n<hr>\n<p>You combine an attack with quick grappling moves to throw an enemy off balance as long as it stays in your reach. Make a Strike while keeping one hand free. If this Strike hits, the target is flat-footed until the start of your next turn or until it's no longer within the reach of your hand, whichever comes first.</p>"
        },
        "featType": {
            "label": "Feat Type",
            "type": "String",
            "value": "class"
        },
        "level": {
            "label": "Feat Level",
            "type": "String",
            "value": "1"
        },
        "prerequisites": {
            "label": "Prerequisites",
            "type": "String",
            "value": ""
        },
        "rarity": {
            "value": "common"
        },
        "rules": [],
        "source": {
            "label": "Source",
            "type": "String",
            "value": ""
        },
        "traits": {
            "custom": "",
            "label": "Traits",
            "rarity": {
                "value": "common"
            },
            "type": "String",
            "value": [
                "fighter"
            ]
        },
        "usage": {
            "value": "held-in-one-hand"
        }
    },
    "flags": {},
    "img": "systems/pf2e/icons/features/feats/feats.jpg",
    "name": "Snagging Strike",
    "permission": {
        "default": 0
    },
    "type": "feat"
}
