{
    "_id": "io6eJGrw701WbmYe",
    "data": {
        "actionCategory": {
            "value": ""
        },
        "actionType": {
            "value": "passive"
        },
        "actions": {
            "value": ""
        },
        "description": {
            "chat": "",
            "unidentified": "",
            "value": "<p><strong>Prerequisite</strong> <a class=\"entity-link\" data-pack=\"pf2e.feats-srd\" data-id=\"iBmqKjsq4iTtoqvl\" draggable=\"true\"><i class=\"fas fa-suitcase\"></i> Assassin Dedication</a></p>\n<hr>\n<p>You act before foes can react. On the first round of combat, if you roll Deception or Stealth for initiative, creatures that haven't acted are <a class=\"entity-link\" data-pack=\"pf2e.conditionspf2e\" data-id=\"AJh5ex99aV6VTggg\" draggable=\"true\"><i class=\"fas fa-book-open\"></i> Flat-Footed</a> to you.</p>"
        },
        "featType": {
            "value": "archetype"
        },
        "level": {
            "value": "4"
        },
        "prerequisites": {
            "value": "Assassin Dedication"
        },
        "rarity": {
            "value": "common"
        },
        "rules": [],
        "source": {
            "value": ""
        },
        "traits": {
            "rarity": {
                "value": "common"
            },
            "value": [
                "archetype"
            ]
        },
        "usage": {
            "value": ""
        }
    },
    "flags": {},
    "img": "systems/pf2e/icons/features/feats/feats.jpg",
    "name": "Surprise Attack",
    "permission": {
        "default": 0
    },
    "type": "feat"
}
