{
    "_id": "isJhIPhT4MsjJvoq",
    "data": {
        "actionCategory": {
            "value": ""
        },
        "actionType": {
            "value": "passive"
        },
        "actions": {
            "value": null
        },
        "description": {
            "chat": "",
            "unidentified": "",
            "value": "<p>You come from a long line of fisherfolk and have inherited the quick reflexes necessary to nab and reel in big game. If you roll a success on an attempt to <a class=\"entity-link\" draggable=\"true\" data-pack=\"pf2e.actionspf2e\" data-id=\"3yoajuKjwHZ9ApUY\"> Grab an Edge</a>, you get a critical success instead; if you roll a critical failure, you get a failure instead. A creature that rolls a failure on a check to <a class=\"entity-link\" draggable=\"true\" data-pack=\"pf2e.actionspf2e\" data-id=\"Dt6B1slsBy8ipJu9\"> Disarm</a> you gets a critical failure instead.</p>"
        },
        "featType": {
            "value": "ancestryfeature"
        },
        "level": {
            "value": "1"
        },
        "prerequisites": {
            "value": null
        },
        "rarity": {
            "value": "common"
        },
        "rules": [],
        "source": {
            "value": ""
        },
        "traits": {
            "custom": "",
            "rarity": {
                "value": "common"
            },
            "value": [
                "shoony"
            ]
        },
        "usage": {
            "value": "held-in-one-hand"
        }
    },
    "effects": [],
    "flags": {},
    "img": "systems/pf2e/icons/features/ancestry/fishseeker-shoony.jpg",
    "name": "Fishseeker Shoony",
    "permission": {
        "default": 0
    },
    "type": "feat"
}
